\relax 
\providecommand\hyper@newdestlabel[2]{}
\@writefile{toc}{\contentsline {chapter}{\numberline {2}Setting up the simulation with \texttt  {params.py}}{7}{chapter.2}}
\@writefile{lof}{\addvspace {10\p@ }}
\@writefile{lot}{\addvspace {10\p@ }}
\newlabel{setup}{{2}{7}{Setting up the simulation with \texttt {params.py}}{chapter.2}{}}
\@writefile{toc}{\contentsline {section}{\numberline {2.1}Mathematical modelling}{7}{section.2.1}}
\@writefile{toc}{\contentsline {subsection}{\numberline {2.1.1}Governing equations}{7}{subsection.2.1.1}}
\newlabel{eq_u}{{2.1a}{7}{Governing equations}{equation.2.1.1a}{}}
\newlabel{eq_t}{{2.1b}{7}{Governing equations}{equation.2.1.1b}{}}
\newlabel{eq_c}{{2.1c}{7}{Governing equations}{equation.2.1.1c}{}}
\citation{lewis1990physical}
\citation{rieutord1997inertial}
\citation{dintrans1999gravito}
\@writefile{toc}{\contentsline {subsection}{\numberline {2.1.2}Boundary conditions}{8}{subsection.2.1.2}}
\newlabel{sec:bc}{{2.1.2}{8}{Boundary conditions}{subsection.2.1.2}{}}
\@writefile{toc}{\contentsline {paragraph}{Scalars $\Theta $ and $\xi $}{8}{section*.1}}
\@writefile{toc}{\contentsline {paragraph}{Velocity.}{8}{section*.2}}
\@writefile{toc}{\contentsline {subsection}{\numberline {2.1.3}Eigenvalue problem}{9}{subsection.2.1.3}}
\newlabel{sec:eig}{{2.1.3}{9}{Eigenvalue problem}{subsection.2.1.3}{}}
\newlabel{Eq_GNHEP}{{2.7}{9}{Eigenvalue problem}{equation.2.1.7}{}}
\newlabel{Eq_Shift_Invert}{{2.9}{9}{Eigenvalue problem}{equation.2.1.9}{}}
\@writefile{toc}{\contentsline {section}{\numberline {2.2}Numerical modelling}{9}{section.2.2}}
\@writefile{toc}{\contentsline {subsection}{\numberline {2.2.1}Internal representation of vector fields}{9}{subsection.2.2.1}}
\citation{schaeffer2013efficient}
\@writefile{toc}{\contentsline {subsection}{\numberline {2.2.2}Angular grid and spherical harmonic truncation}{10}{subsection.2.2.2}}
\@setckpt{./Chap2}{
\setcounter{page}{11}
\setcounter{equation}{14}
\setcounter{enumi}{4}
\setcounter{enumii}{0}
\setcounter{enumiii}{0}
\setcounter{enumiv}{0}
\setcounter{footnote}{0}
\setcounter{mpfootnote}{0}
\setcounter{part}{0}
\setcounter{chapter}{2}
\setcounter{section}{2}
\setcounter{subsection}{2}
\setcounter{subsubsection}{0}
\setcounter{paragraph}{0}
\setcounter{subparagraph}{0}
\setcounter{figure}{0}
\setcounter{table}{0}
\setcounter{parentequation}{13}
\setcounter{NAT@ctr}{0}
\setcounter{float@type}{4}
\setcounter{Item}{8}
\setcounter{Hfootnote}{1}
\setcounter{bookmark@seq@number}{20}
\setcounter{section@level}{2}
}
