\relax 
\providecommand\hyper@newdestlabel[2]{}
\@writefile{toc}{\contentsline {chapter}{\numberline {3}Post-processing with xspp}{11}{chapter.3}}
\@writefile{lof}{\addvspace {10\p@ }}
\@writefile{lot}{\addvspace {10\p@ }}
\newlabel{ch:xspp}{{3}{11}{Post-processing with xspp}{chapter.3}{}}
\@writefile{toc}{\contentsline {section}{\numberline {3.1}Using the xspp command-line tool}{11}{section.3.1}}
\@writefile{toc}{\contentsline {section}{\numberline {3.2}Extract and plot 2D slices}{12}{section.3.2}}
\@writefile{toc}{\contentsline {subsection}{\numberline {3.2.1}plotting with matlab/octave}{12}{subsection.3.2.1}}
\@writefile{toc}{\contentsline {subsection}{\numberline {3.2.2}plotting with python/matplotlib}{13}{subsection.3.2.2}}
\@writefile{toc}{\contentsline {section}{\numberline {3.3}3D visualization with paraview}{13}{section.3.3}}
\@writefile{toc}{\contentsline {section}{\numberline {3.4}Advanced post-processing using pyxshells}{13}{section.3.4}}
\@setckpt{./Chap3}{
\setcounter{page}{14}
\setcounter{equation}{0}
\setcounter{enumi}{4}
\setcounter{enumii}{0}
\setcounter{enumiii}{0}
\setcounter{enumiv}{0}
\setcounter{footnote}{0}
\setcounter{mpfootnote}{0}
\setcounter{part}{0}
\setcounter{chapter}{3}
\setcounter{section}{4}
\setcounter{subsection}{0}
\setcounter{subsubsection}{0}
\setcounter{paragraph}{0}
\setcounter{subparagraph}{0}
\setcounter{figure}{0}
\setcounter{table}{0}
\setcounter{parentequation}{1}
\setcounter{float@type}{4}
\setcounter{Item}{4}
\setcounter{Hfootnote}{1}
\setcounter{bookmark@seq@number}{28}
\setcounter{section@level}{1}
}
