\relax 
\providecommand\hyper@newdestlabel[2]{}
\@writefile{toc}{\contentsline {chapter}{\numberline {1}Beginning}{1}{chapter.1}}
\@writefile{lof}{\addvspace {10\p@ }}
\@writefile{lot}{\addvspace {10\p@ }}
\@writefile{toc}{\contentsline {section}{\numberline {1.1}Description}{1}{section.1.1}}
\@writefile{toc}{\contentsline {section}{\numberline {1.2}Requirements}{2}{section.1.2}}
\@writefile{toc}{\contentsline {subsection}{\numberline {1.2.1}For SINGE\xspace  itself}{2}{subsection.1.2.1}}
\@writefile{toc}{\contentsline {section}{\numberline {1.3}Installation}{2}{section.1.3}}
\citation{vidal2015quasi}
\citation{kaplan2017subcritical}
\@writefile{toc}{\contentsline {section}{\numberline {1.4}Configuration file \texttt  {params.py}}{4}{section.1.4}}
\@writefile{toc}{\contentsline {section}{\numberline {1.5}Running SINGE\xspace  }{4}{section.1.5}}
\@writefile{toc}{\contentsline {subsection}{\numberline {1.5.1}Free eigenmodes}{4}{subsection.1.5.1}}
\@writefile{toc}{\contentsline {subsection}{\numberline {1.5.2}Thermal convection}{4}{subsection.1.5.2}}
\@writefile{toc}{\contentsline {subsection}{\numberline {1.5.3}SLEPc options}{5}{subsection.1.5.3}}
\citation{kaplan2017subcritical}
\@writefile{toc}{\contentsline {section}{\numberline {1.6}Outputs}{6}{section.1.6}}
\newlabel{sec:outputs}{{1.6}{6}{Outputs}{section.1.6}{}}
\@writefile{toc}{\contentsline {section}{\numberline {1.7}Citing}{6}{section.1.7}}
\@setckpt{./Chap1}{
\setcounter{page}{7}
\setcounter{equation}{1}
\setcounter{enumi}{4}
\setcounter{enumii}{0}
\setcounter{enumiii}{0}
\setcounter{enumiv}{0}
\setcounter{footnote}{1}
\setcounter{mpfootnote}{0}
\setcounter{part}{0}
\setcounter{chapter}{1}
\setcounter{section}{7}
\setcounter{subsection}{0}
\setcounter{subsubsection}{0}
\setcounter{paragraph}{0}
\setcounter{subparagraph}{0}
\setcounter{figure}{0}
\setcounter{table}{0}
\setcounter{parentequation}{0}
\setcounter{NAT@ctr}{0}
\setcounter{float@type}{4}
\setcounter{Item}{8}
\setcounter{Hfootnote}{1}
\setcounter{bookmark@seq@number}{12}
\setcounter{section@level}{1}
}
