\relax 
\providecommand\hyper@newdestlabel[2]{}
\providecommand\HyperFirstAtBeginDocument{\AtBeginDocument}
\HyperFirstAtBeginDocument{\ifx\hyper@anchor\@undefined
\global\let\oldcontentsline\contentsline
\gdef\contentsline#1#2#3#4{\oldcontentsline{#1}{#2}{#3}}
\global\let\oldnewlabel\newlabel
\gdef\newlabel#1#2{\newlabelxx{#1}#2}
\gdef\newlabelxx#1#2#3#4#5#6{\oldnewlabel{#1}{{#2}{#3}}}
\AtEndDocument{\ifx\hyper@anchor\@undefined
\let\contentsline\oldcontentsline
\let\newlabel\oldnewlabel
\fi}
\fi}
\global\let\hyper@last\relax 
\gdef\HyperFirstAtBeginDocument#1{#1}
\providecommand\HyField@AuxAddToFields[1]{}
\providecommand\HyField@AuxAddToCoFields[2]{}
\babel@aux{english}{}
\@input{./Chap1.aux}
\@input{./Chap2.aux}
\bibdata{./bibsinge}
\bibcite{dintrans1999gravito}{{1}{1999}{{Dintrans {\em  et~al.\/}}}{{Dintrans, Rieutord \& Valdettaro}}}
\bibcite{kaplan2017subcritical}{{2}{2017}{{Kaplan {\em  et~al.\/}}}{{Kaplan, Schaeffer, Vidal \& Cardin}}}
\bibcite{lewis1990physical}{{3}{1990}{{Lewis \& Bellan}}{{}}}
\bibcite{rieutord1997inertial}{{4}{1997}{{Rieutord \& Valdettaro}}{{}}}
\bibcite{schaeffer2013efficient}{{5}{2013}{{Schaeffer}}{{}}}
\bibcite{vidal2015quasi}{{6}{2015}{{Vidal \& Schaeffer}}{{}}}
\bibstyle{jfm}
